xN_18_MM,	100000.0, 0,	xN_18_MM,	unused, unused, 100000.0
N_18_MM,	100000.0, 0,	N_18_MM,	unused, unused, 100000.0
xP_18_MM,	100000.0, 0,	xP_18_MM,	unused, unused, 100000.0
P_18_MM,	100000.0, 0,	P_18_MM,	unused, unused, 100000.0
